ECE437/S16/tutorial/transcript
# vsim -c -do "run -all; exit;" -L altera_mf_ver -L altera_ver -L cycloneive_ver -wlf test_tb.wlf work.test_tb 
# Start time: 13:50:09 on Jan 18,2016
# ** Warning: (vsim-8891) All optimizations are turned off because the -novopt switch is in effect. This will cause your simulation to run very slowly. If you are using this switch to preserve visibility for Debug or PLI features please see the User's Manual section on Preserving Object Visibility with vopt.
# //  Questa Sim-64
# //  Version 10.3b linux_x86_64 May 29 2014
# //
# //  Copyright 1991-2014 Mentor Graphics Corporation
# //  All Rights Reserved.
# //
# //  THIS WORK CONTAINS TRADE SECRET AND PROPRIETARY INFORMATION
# //  WHICH IS THE PROPERTY OF MENTOR GRAPHICS CORPORATION OR ITS
# //  LICENSORS AND IS SUBJECT TO LICENSE TERMS.
# //
# Loading sv_std.std
# Loading work.types_pkg
# Loading work.test_tb
# Loading work.test
# Loading cycloneive_ver.cycloneive_io_obuf
# Loading cycloneive_ver.cycloneive_io_ibuf
# Loading cycloneive_ver.cycloneive_clkctrl
# Loading cycloneive_ver.cycloneive_mux41
# Loading cycloneive_ver.cycloneive_ena_reg
# Loading cycloneive_ver.cycloneive_lcell_comb
# Loading altera_ver.dffeas
# Loading work.simple
# Loading altera_ver.PRIM_GDFF_LOW
# run -all
# @0 CLK = 1 nRST = 0 dir = 0 count = 0
# @5 CLK = 0 nRST = 0 dir = 0 count = 0
# @10 CLK = 1 nRST = 1 dir = 0 count = 0
# @15 CLK = 0 nRST = 1 dir = 0 count = 0
# @20 CLK = 1 nRST = 1 dir = 0 count = 2
# @25 CLK = 0 nRST = 1 dir = 0 count = 2
# @30 CLK = 1 nRST = 1 dir = 0 count = 4
# @35 CLK = 0 nRST = 1 dir = 0 count = 4
# @40 CLK = 1 nRST = 1 dir = 0 count = 6
# @45 CLK = 0 nRST = 1 dir = 0 count = 6
# @50 CLK = 1 nRST = 1 dir = 0 count = 8
# @55 CLK = 0 nRST = 1 dir = 0 count = 8
# @60 CLK = 1 nRST = 1 dir = 1 count = 10
# @65 CLK = 0 nRST = 1 dir = 1 count = 10
# @70 CLK = 1 nRST = 1 dir = 1 count = 8
# @75 CLK = 0 nRST = 1 dir = 1 count = 8
# @80 CLK = 1 nRST = 1 dir = 1 count = 6
# @85 CLK = 0 nRST = 1 dir = 1 count = 6
# @90 CLK = 1 nRST = 1 dir = 1 count = 4
# @95 CLK = 0 nRST = 1 dir = 1 count = 4
# @100 CLK = 1 nRST = 1 dir = 1 count = 2
# @105 CLK = 0 nRST = 1 dir = 1 count = 2
# End time: 13:50:10 on Jan 18,2016, Elapsed time: 0:00:01
# Errors: 0, Warnings: 1
